<?xml version="1.0" encoding="utf-8"?>
<!-- Generator: Adobe Illustrator 23.0.0, SVG Export Plug-In . SVG Version: 6.00 Build 0)  -->
<svg version="1.1" id="Layer_1" xmlns="http://www.w3.org/2000/svg" xmlns:xlink="http://www.w3.org/1999/xlink" x="0px" y="0px"
	 viewBox="0 0 120.4 185.3" style="enable-background:new 0 0 120.4 185.3;" xml:space="preserve">
<style type="text/css">
	.st0{fill:url(#SVGID_1_);}
	.st1{fill:none;stroke:#7A7A7A;stroke-width:0.25;stroke-miterlimit:10;}
	.st2{fill:#BEBEC0;}
</style>
<g>
	
		<image style="overflow:visible;opacity:0.54;" width="436" height="707" xlink:href="FDC81F08.png"  transform="matrix(0.24 0 0 0.24 11.5993 11.1179)">
	</image>
	<g>
		<linearGradient id="SVGID_1_" gradientUnits="userSpaceOnUse" x1="64.85" y1="25.2632" x2="64.85" y2="158.6526">
			<stop  offset="7.262570e-02" style="stop-color:#FDFFFF"/>
			<stop  offset="1" style="stop-color:#D8D8D8"/>
		</linearGradient>
		<path class="st0" d="M87.4,158.7H42.3c-6.4,0-11.5-5.2-11.5-11.5V36.8c0-6.4,5.2-11.5,11.5-11.5h45.1c6.4,0,11.5,5.2,11.5,11.5
			v110.3C99,153.5,93.8,158.7,87.4,158.7z"/>
		<path class="st1" d="M87.4,158.7H42.3c-6.4,0-11.5-5.2-11.5-11.5V36.8c0-6.4,5.2-11.5,11.5-11.5h45.1c6.4,0,11.5,5.2,11.5,11.5
			v110.3C99,153.5,93.8,158.7,87.4,158.7z"/>
	</g>
</g>
<g>
	<rect x="51.8" y="64.9" class="st2" width="9.3" height="9.3"/>
	<rect x="68.5" y="64.9" class="st2" width="9.3" height="9.3"/>
	<rect x="51.8" y="79.8" class="st2" width="9.3" height="9.3"/>
	<rect x="68.5" y="79.8" class="st2" width="9.3" height="9.3"/>
	<rect x="51.8" y="94.7" class="st2" width="9.3" height="9.3"/>
	<rect x="68.5" y="94.7" class="st2" width="9.3" height="9.3"/>
	<rect x="51.8" y="109.6" class="st2" width="9.3" height="9.3"/>
	<rect x="68.5" y="109.6" class="st2" width="9.3" height="9.3"/>
</g>
</svg>
