<?xml version="1.0" encoding="utf-8"?>
<!-- Generator: Adobe Illustrator 23.0.0, SVG Export Plug-In . SVG Version: 6.00 Build 0)  -->
<svg version="1.1" id="Layer_1" xmlns="http://www.w3.org/2000/svg" xmlns:xlink="http://www.w3.org/1999/xlink" x="0px" y="0px"
	 viewBox="0 0 832 56.8" style="enable-background:new 0 0 832 56.8;" xml:space="preserve">
<style type="text/css">
	.st0{fill:url(#SVGID_1_);}
</style>
<linearGradient id="SVGID_1_" gradientUnits="userSpaceOnUse" x1="416.0079" y1="37.9553" x2="416.0079" y2="18.8868">
	<stop  offset="0" style="stop-color:#ADADAD"/>
	<stop  offset="0.4972" style="stop-color:#C5C5C5"/>
	<stop  offset="1" style="stop-color:#ADADAD"/>
</linearGradient>
<path class="st0" d="M799.6,38H32.4c-5.3,0-9.5-4.3-9.5-9.5v0c0-5.3,4.3-9.5,9.5-9.5h767.2c5.3,0,9.5,4.3,9.5,9.5v0
	C809.2,33.7,804.9,38,799.6,38z"/>
</svg>
